…
``` r
df
```

    ## # A tibble: 160 x 4
    ##    arm        id  week observations
    ##    <fct>   <dbl> <dbl>        <dbl>
    ##  1 control     1     1         0.2 
    ##  2 control     1     2        -1.31
    ##  3 control     1     3         0.66
    ##  4 control     1     4         1.96
    ##  5 control     1     5         0.23
    ##  6 control     1     6         1.09
    ##  7 control     1     7         0.05
    ##  8 control     1     8         1.94
    ##  9 control     2     1         1.13
    ## 10 control     2     2        -0.88
    ## # ... with 150 more rows
…
